<?xml version="1.0" encoding="utf-8"?>
<!-- Generator: Adobe Illustrator 22.1.0, SVG Export Plug-In . SVG Version: 6.00 Build 0)  -->
<svg version="1.1" id="_x31_200_x__x_800px" xmlns="http://www.w3.org/2000/svg" xmlns:xlink="http://www.w3.org/1999/xlink"
	 x="0px" y="0px" viewBox="0 0 88.862 106.58" style="enable-background:new 0 0 88.862 106.58;" xml:space="preserve">
<style type="text/css">
	.st0{fill:#F4F1F6;}
</style>
<rect x="41.132" y="50.276" transform="matrix(1 -0.0066 0.0066 1 -0.3537 0.2954)" class="st0" width="6.812" height="6.813"/>
<rect x="0.391" y="70.227" transform="matrix(1 -0.0066 0.0066 1 -0.4864 0.0267)" class="st0" width="6.812" height="6.812"/>
<rect x="31.045" y="70.023" transform="matrix(1 -0.0066 0.0066 1 -0.4844 0.2292)" class="st0" width="6.81" height="6.812"/>
<rect x="41.262" y="69.956" transform="matrix(1 -0.0066 0.0066 1 -0.4825 0.296)" class="st0" width="6.813" height="6.811"/>
<rect x="0.457" y="80.066" transform="matrix(1 -0.0066 0.0066 1 -0.5502 0.0273)" class="st0" width="6.811" height="6.814"/>
<rect x="10.674" y="79.998" transform="matrix(1 -0.0066 0.0066 1 -0.5496 0.0946)" class="st0" width="6.811" height="6.814"/>
<rect x="41.328" y="79.795" transform="matrix(1 -0.0067 0.0067 1 -0.5597 0.3034)" class="st0" width="6.811" height="6.813"/>
<rect x="10.74" y="89.839" transform="matrix(1 -0.0066 0.0066 1 -0.6157 0.0955)" class="st0" width="6.812" height="6.813"/>
<rect x="0.588" y="99.746" transform="matrix(1 -0.0066 0.0066 1 -0.68 0.0286)" class="st0" width="6.81" height="6.812"/>
<rect x="0.022" y="0.091" transform="matrix(1 -0.0066 0.0066 1 -0.023 0.0227)" class="st0" width="6.811" height="6.812"/>
<rect x="10.24" y="0.023" transform="matrix(1 -0.0067 0.0067 1 -0.0228 0.092)" class="st0" width="6.812" height="6.812"/>
<rect x="10.304" y="9.862" transform="matrix(1 -0.0066 0.0066 1 -0.0872 0.0907)" class="st0" width="6.813" height="6.814"/>
<rect x="20.523" y="9.794" transform="matrix(1 -0.0066 0.0066 1 -0.0867 0.1584)" class="st0" width="6.812" height="6.813"/>
<rect x="61.46" y="19.363" transform="matrix(1 -0.0066 0.0066 1 -0.1486 0.4279)" class="st0" width="6.813" height="6.813"/>
<rect x="10.435" y="29.542" transform="matrix(1 -0.0067 0.0067 1 -0.2217 0.094)" class="st0" width="6.813" height="6.812"/>
<rect x="20.654" y="29.475" transform="matrix(1 -0.0066 0.0066 1 -0.2162 0.1593)" class="st0" width="6.812" height="6.811"/>
<rect x="41.089" y="29.339" transform="matrix(1 -0.0067 0.0067 1 -0.2196 0.3005)" class="st0" width="6.814" height="6.811"/>
<rect x="61.526" y="29.203" transform="matrix(1 -0.0066 0.0066 1 -0.2135 0.4287)" class="st0" width="6.812" height="6.812"/>
<rect x="0.261" y="50.548" transform="matrix(1 -0.0067 0.0067 1 -0.3635 0.0259)" class="st0" width="6.812" height="6.812"/>
<rect x="10.478" y="50.48" transform="matrix(1 -0.0066 0.0066 1 -0.3557 0.0929)" class="st0" width="6.811" height="6.813"/>
<rect x="20.762" y="60.251" transform="matrix(1 -0.0066 0.0066 1 -0.419 0.1607)" class="st0" width="6.813" height="6.813"/>
<rect x="51.415" y="60.048" transform="matrix(1 -0.0066 0.0066 1 -0.4179 0.3635)" class="st0" width="6.813" height="6.812"/>
<rect x="61.635" y="59.979" transform="matrix(1 -0.0066 0.0066 1 -0.4164 0.4301)" class="st0" width="6.812" height="6.813"/>
<rect x="10.805" y="99.678" transform="matrix(1 -0.0066 0.0066 1 -0.6808 0.0961)" class="st0" width="6.811" height="6.812"/>
<rect x="30.871" y="29.407" transform="matrix(1 -0.0067 0.0067 1 -0.2203 0.2317)" class="st0" width="6.812" height="6.812"/>
<rect x="71.809" y="38.975" transform="matrix(1 -0.0066 0.0066 1 -0.2783 0.4978)" class="st0" width="6.813" height="6.813"/>
<rect x="82.028" y="38.907" transform="matrix(1 -0.0066 0.0066 1 -0.2771 0.5641)" class="st0" width="6.812" height="6.812"/>
</svg>
