<?xml version="1.0" encoding="utf-8"?>
<!-- Generator: Adobe Illustrator 22.1.0, SVG Export Plug-In . SVG Version: 6.00 Build 0)  -->
<svg version="1.1" id="Layer_1" xmlns="http://www.w3.org/2000/svg" xmlns:xlink="http://www.w3.org/1999/xlink" x="0px" y="0px"
	 viewBox="0 0 34.513 5.969" style="enable-background:new 0 0 34.513 5.969;" xml:space="preserve">
<style type="text/css">
	.st0{fill:#492C59;}
</style>
<g>
	<path class="st0" d="M17.703,4.5l0.166,0.057C30.318,8.232,33.766,4.026,34.513,0H0v5.838C0.452,4.684,3.467-0.979,17.703,4.5z"/>
</g>
</svg>
