<?xml version="1.0" encoding="utf-8"?>
<!-- Generator: Adobe Illustrator 22.1.0, SVG Export Plug-In . SVG Version: 6.00 Build 0)  -->
<svg version="1.1" id="Laag_1" xmlns="http://www.w3.org/2000/svg" xmlns:xlink="http://www.w3.org/1999/xlink" x="0px" y="0px"
	 viewBox="-318.885 381 26 26" style="enable-background:new -318.885 381 26 26;" xml:space="preserve">
<style type="text/css">
	.st0{fill:url(#SVGID_1_);}
	.st1{fill:url(#SVGID_2_);}
	.st2{fill:url(#SVGID_3_);}
	.st3{fill:url(#SVGID_4_);}
</style>
<linearGradient id="SVGID_1_" gradientUnits="userSpaceOnUse" x1="-318.8855" y1="394" x2="-292.8855" y2="394">
	<stop  offset="0" style="stop-color:#9BC31A"/>
	<stop  offset="1" style="stop-color:#01B5E2"/>
</linearGradient>
<path class="st0" d="M-305.885,381c-7.18,0-13,5.82-13,13s5.82,13,13,13s13-5.82,13-13
	C-292.894,386.824-298.709,381.008-305.885,381z M-305.885,405c-6.075,0-11-4.925-11-11s4.925-11,11-11s11,4.925,11,11
	C-294.893,400.072-299.813,404.993-305.885,405z"/>
<linearGradient id="SVGID_2_" gradientUnits="userSpaceOnUse" x1="-312.8855" y1="390" x2="-306.8855" y2="390">
	<stop  offset="0" style="stop-color:#9BC31A"/>
	<stop  offset="1" style="stop-color:#01B5E2"/>
</linearGradient>
<path class="st1" d="M-311.885,392c0.552,0,1-0.448,1-1s0.448-1,1-1s1,0.448,1,1s0.448,1,1,1s1-0.448,1-1c0-1.657-1.343-3-3-3
	s-3,1.343-3,3C-312.885,391.552-312.438,392-311.885,392z"/>
<linearGradient id="SVGID_3_" gradientUnits="userSpaceOnUse" x1="-304.8855" y1="390" x2="-298.8855" y2="390">
	<stop  offset="0" style="stop-color:#9BC31A"/>
	<stop  offset="1" style="stop-color:#01B5E2"/>
</linearGradient>
<path class="st2" d="M-301.885,388c-1.657,0-3,1.343-3,3c0,0.552,0.448,1,1,1s1-0.448,1-1s0.448-1,1-1s1,0.448,1,1s0.448,1,1,1
	s1-0.448,1-1C-298.885,389.343-300.229,388-301.885,388z"/>
<linearGradient id="SVGID_4_" gradientUnits="userSpaceOnUse" x1="-312.8855" y1="398" x2="-298.8855" y2="398">
	<stop  offset="0" style="stop-color:#9BC31A"/>
	<stop  offset="1" style="stop-color:#01B5E2"/>
</linearGradient>
<path class="st3" d="M-299.885,394c-0.552,0-1,0.448-1,1c0,2.761-2.239,5-5,5s-5-2.239-5-5c0-0.552-0.448-1-1-1s-1,0.448-1,1
	c0,3.866,3.134,7,7,7s7-3.134,7-7C-298.885,394.448-299.333,394-299.885,394z"/>
</svg>
